4 Condiciones meteorológicas | Análisis de ensayo de protección
…
            days = n()) %>%
  mutate(year = year(date),
         month = month(date)) %>%
  ungroup %>%
  group_by(year) %>%
  mutate(decada = row_number()) %>%
  ungroup %>%
  group_by(decada) %>%
  summarise(month = first(month),
            med = quantile(rain_acum, .5, na.rm = T),
            lower_80=quantile(rain_acum, .2, na.rm = T), # Rango 80% de los años
            upper_80=quantile(rain_acum, .8, na.rm = T)) 
serie20

## # A tibble: 36 x 5
##    decada month   med lower_80 upper_80
##     <int> <dbl> <dbl>    <dbl>    <dbl>
##  1      1     1 14.1      7.1      34.4
##  2      2     1 12.8      3.6      55.6
##  3      3     1 50.8     16.0      70.2
##  4      4     2 20.2     12.6      60. 
##  5      5     2 23.8      2.36     46.3
##  6      6     2 20.8      1.5      56.5
##  7      7     3 35.3     15.1      70.2
##  8      8     3 27.6     16.8      55.3
##  9      9     3  8.45     2.44     33.9
## 10     10     4 17.8      3.4      48.3
## # … with 26 more rows
…
